(kicad_pcb (version 20211014) (generator pcbnew)

  (general
    (thickness 1.6)
  )

  (paper "A4")
  (title_block
    (title "CosmosBuffer-Resistors")
    (date "2023-09-24")
    (rev "1.0")
    (company "T5! DIY Audio")
  )

  (layers
    (0 "F.Cu" signal)
    (31 "B.Cu" signal)
    (32 "B.Adhes" user "B.Adhesive")
    (33 "F.Adhes" user "F.Adhesive")
    (34 "B.Paste" user)
    (35 "F.Paste" user)
    (36 "B.SilkS" user "B.Silkscreen")
    (37 "F.SilkS" user "F.Silkscreen")
    (38 "B.Mask" user)
    (39 "F.Mask" user)
    (40 "Dwgs.User" user "User.Drawings")
    (41 "Cmts.User" user "User.Comments")
    (42 "Eco1.User" user "User.Eco1")
    (43 "Eco2.User" user "User.Eco2")
    (44 "Edge.Cuts" user)
    (45 "Margin" user)
    (46 "B.CrtYd" user "B.Courtyard")
    (47 "F.CrtYd" user "F.Courtyard")
    (48 "B.Fab" user)
    (49 "F.Fab" user)
    (50 "User.1" user)
    (51 "User.2" user)
    (52 "User.3" user)
    (53 "User.4" user)
    (54 "User.5" user)
    (55 "User.6" user)
    (56 "User.7" user)
    (57 "User.8" user)
    (58 "User.9" user)
  )

  (setup
    (pad_to_mask_clearance 0)
    (aux_axis_origin 134 110.45)
    (grid_origin 134 110.45)
    (pcbplotparams
      (layerselection 0x00010fc_ffffffff)
      (disableapertmacros false)
      (usegerberextensions false)
      (usegerberattributes true)
      (usegerberadvancedattributes true)
      (creategerberjobfile true)
      (svguseinch false)
      (svgprecision 6)
      (excludeedgelayer true)
      (plotframeref false)
      (viasonmask false)
      (mode 1)
      (useauxorigin false)
      (hpglpennumber 1)
      (hpglpenspeed 20)
      (hpglpendiameter 15.000000)
      (dxfpolygonmode true)
      (dxfimperialunits true)
      (dxfusepcbnewfont true)
      (psnegative false)
      (psa4output false)
      (plotreference true)
      (plotvalue true)
      (plotinvisibletext false)
      (sketchpadsonfab false)
      (subtractmaskfromsilk false)
      (outputformat 1)
      (mirror false)
      (drillshape 0)
      (scaleselection 1)
      (outputdirectory "_output")
    )
  )

  (net 0 "")
  (net 1 "Net-(R1-Pad1)")
  (net 2 "Net-(R2-Pad1)")
  (net 3 "unconnected-(J1-Pad3)")
  (net 4 "unconnected-(J1-Pad4)")
  (net 5 "unconnected-(J1-Pad5)")
  (net 6 "unconnected-(J1-Pad6)")
  (net 7 "Net-(R3-Pad1)")
  (net 8 "Net-(R4-Pad1)")
  (net 9 "Net-(R4-Pad2)")
  (net 10 "Net-(R3-Pad2)")
  (net 11 "unconnected-(J2-Pad3)")
  (net 12 "unconnected-(J2-Pad4)")
  (net 13 "unconnected-(J2-Pad5)")
  (net 14 "unconnected-(J2-Pad6)")
  (net 15 "Net-(R2-Pad2)")
  (net 16 "Net-(R1-Pad2)")

  (footprint "Resistor_THT:R_Axial_DIN0204_L3.6mm_D1.6mm_P2.54mm_Vertical" (layer "F.Cu")
    (tedit 5AE5139B) (tstamp 027a634f-2058-433e-9fe2-d965787b9803)
    (at 136.59 111.4)
    (descr "Resistor, Axial_DIN0204 series, Axial, Vertical, pin pitch=2.54mm, 0.167W, length*diameter=3.6*1.6mm^2, http://cdn-reichelt.de/documents/datenblatt/B400/1_4W%23YAG.pdf")
    (tags "Resistor Axial_DIN0204 series Axial Vertical pin pitch 2.54mm 0.167W length 3.6mm diameter 1.6mm")
    (attr through_hole)
    (fp_text reference "REF**" (at 1.27 -1.92) (layer "F.SilkS") hide
      (effects (font (size 1 1) (thickness 0.15)))
      (tstamp e07e57a5-2d74-43dc-b6b9-aadeed2c560b)
    )
    (fp_text value "R_Axial_DIN0204_L3.6mm_D1.6mm_P2.54mm_Vertical" (at 1.27 1.92) (layer "F.Fab")
      (effects (font (size 1 1) (thickness 0.15)))
      (tstamp a8b98709-1614-40d3-b804-fe7bd3f4034c)
    )
    (fp_text user "${REFERENCE}" (at 1.27 -1.92) (layer "F.Fab")
      (effects (font (size 1 1) (thickness 0.15)))
      (tstamp b6ec4c54-5b0f-4fa0-b1a8-36e3059a3686)
    )
    (fp_line (start 0 0) (end 2.54 0) (layer "F.Fab") (width 0.1) (tstamp 97f8d070-c1bb-4cee-8d30-398e8884aebf))
    (fp_circle (center 0 0) (end 0.8 0) (layer "F.Fab") (width 0.1) (fill none) (tstamp 76915c51-3038-4fde-a394-d321565a077b))
    (pad "1" thru_hole circle (at 0 0) (size 1.4 1.4) (drill 0.7) (layers *.Cu *.Mask) (tstamp 8c09e84a-f76c-4875-a192-07dd53081a1d))
    (pad "2" thru_hole oval (at 2.54 0) (size 1.4 1.4) (drill 0.7) (layers *.Cu *.Mask) (tstamp ed9c54bb-bd5c-448d-af29-daacb32bc7bd))
    (model "${KICAD6_3DMODEL_DIR}/Resistor_THT.3dshapes/R_Axial_DIN0204_L3.6mm_D1.6mm_P2.54mm_Vertical.wrl"
      (offset (xyz 0 0 0))
      (scale (xyz 1 1 1))
      (rotate (xyz 0 0 0))
    )
  )

  (footprint "Resistor_SMD:R_1206_3216Metric" (layer "F.Cu")
    (tedit 5F68FEEE) (tstamp 041292dc-8a38-4940-b393-c25d2215a454)
    (at 137.81 110.15)
    (descr "Resistor SMD 1206 (3216 Metric), square (rectangular) end terminal, IPC_7351 nominal, (Body size source: IPC-SM-782 page 72, https://www.pcb-3d.com/wordpress/wp-content/uploads/ipc-sm-782a_amendment_1_and_2.pdf), generated with kicad-footprint-generator")
    (tags "resistor")
    (property "Sheetfile" "CosmosBuffer-Resistors.kicad_sch")
    (property "Sheetname" "")
    (path "/f6daddad-5898-4714-ab81-cf65281af3b3")
    (attr smd)
    (fp_text reference "R1" (at 0 -1.82) (layer "F.SilkS") hide
      (effects (font (size 1 1) (thickness 0.15)))
      (tstamp 0dfe4fce-211c-41dc-809a-e8df3926e4e0)
    )
    (fp_text value "R" (at 0 1.82) (layer "F.Fab")
      (effects (font (size 1 1) (thickness 0.15)))
      (tstamp 86535472-3fb1-4c6a-abda-e5f93fa76f02)
    )
    (fp_text user "${REFERENCE}" (at 0 0) (layer "F.Fab")
      (effects (font (size 0.8 0.8) (thickness 0.12)))
      (tstamp a816d716-1ac9-4f45-be2b-e60e3612b1b0)
    )
    (fp_line (start -2.28 -1.12) (end 2.28 -1.12) (layer "F.CrtYd") (width 0.05) (tstamp 1ad9a0df-a1ca-497f-8458-48fe41c8c59c))
    (fp_line (start 2.28 -1.12) (end 2.28 1.12) (layer "F.CrtYd") (width 0.05) (tstamp 1d6b773c-90aa-47b2-8b2d-f6e51d9a9e64))
    (fp_line (start 2.28 1.12) (end -2.28 1.12) (layer "F.CrtYd") (width 0.05) (tstamp 999a4595-3bf8-4c2c-92d4-b3b2d1242857))
    (fp_line (start -2.28 1.12) (end -2.28 -1.12) (layer "F.CrtYd") (width 0.05) (tstamp dd66d589-b432-45cd-8f46-193f332898ce))
    (fp_line (start 1.6 0.8) (end -1.6 0.8) (layer "F.Fab") (width 0.1) (tstamp 0f84ae4c-ae5e-4d7b-91d0-325b119bbded))
    (fp_line (start -1.6 0.8) (end -1.6 -0.8) (layer "F.Fab") (width 0.1) (tstamp 2b3788da-bea5-4022-973f-acac65246249))
    (fp_line (start 1.6 -0.8) (end 1.6 0.8) (layer "F.Fab") (width 0.1) (tstamp 781eca48-6ca5-415a-9128-1cf3c8e7ba70))
    (fp_line (start -1.6 -0.8) (end 1.6 -0.8) (layer "F.Fab") (width 0.1) (tstamp a893e55d-fbeb-465d-b4e2-3c11cb3924c7))
    (pad "1" smd roundrect (at -1.4625 0) (size 1.125 1.75) (layers "F.Cu" "F.Paste" "F.Mask") (roundrect_rratio 0.2222222222)
      (net 1 "Net-(R1-Pad1)") (pintype "passive") (tstamp be7e666f-de5f-4404-ad6f-d80257f99588))
    (pad "2" smd roundrect (at 1.4625 0) (size 1.125 1.75) (layers "F.Cu" "F.Paste" "F.Mask") (roundrect_rratio 0.2222222222)
      (net 16 "Net-(R1-Pad2)") (pintype "passive") (tstamp 41c166bb-2528-4018-b6a3-b253038525d2))
    (model "${KICAD6_3DMODEL_DIR}/Resistor_SMD.3dshapes/R_1206_3216Metric.wrl"
      (offset (xyz 0 0 0))
      (scale (xyz 1 1 1))
      (rotate (xyz 0 0 0))
    )
  )

  (footprint "Resistor_THT:R_Axial_DIN0204_L3.6mm_D1.6mm_P2.54mm_Vertical" (layer "F.Cu")
    (tedit 5AE5139B) (tstamp 0b3bb58f-9682-44f1-9032-63cbce8454ec)
    (at 136.665 127.28)
    (descr "Resistor, Axial_DIN0204 series, Axial, Vertical, pin pitch=2.54mm, 0.167W, length*diameter=3.6*1.6mm^2, http://cdn-reichelt.de/documents/datenblatt/B400/1_4W%23YAG.pdf")
    (tags "Resistor Axial_DIN0204 series Axial Vertical pin pitch 2.54mm 0.167W length 3.6mm diameter 1.6mm")
    (attr through_hole)
    (fp_text reference "REF**" (at 1.27 -1.92) (layer "F.SilkS") hide
      (effects (font (size 1 1) (thickness 0.15)))
      (tstamp 392cd80c-6dc3-4aba-bc12-9b3d462c5cd6)
    )
    (fp_text value "R_Axial_DIN0204_L3.6mm_D1.6mm_P2.54mm_Vertical" (at 1.27 1.92) (layer "F.Fab")
      (effects (font (size 1 1) (thickness 0.15)))
      (tstamp ec641bfc-6437-4f71-bc7e-42b358f73dbf)
    )
    (fp_text user "${REFERENCE}" (at 1.27 -1.92) (layer "F.Fab")
      (effects (font (size 1 1) (thickness 0.15)))
      (tstamp 3a5a3223-bbc6-4891-8fdd-7a60bed483cb)
    )
    (fp_line (start 0 0) (end 2.54 0) (layer "F.Fab") (width 0.1) (tstamp ff9d5539-06ec-4a49-bdfd-664c9ea9a5c2))
    (fp_circle (center 0 0) (end 0.8 0) (layer "F.Fab") (width 0.1) (fill none) (tstamp 926f7e03-4889-48ef-9fc1-92d0244afeaa))
    (pad "1" thru_hole circle (at 0 0) (size 1.4 1.4) (drill 0.7) (layers F&B.Cu *.Mask) (tstamp 756ec547-2288-4550-a58b-38da965c30c5))
    (pad "2" thru_hole oval (at 2.54 0) (size 1.4 1.4) (drill 0.7) (layers F&B.Cu *.Mask) (tstamp 3f695dc2-328f-4c01-87fc-bd2fe1835164))
    (model "${KICAD6_3DMODEL_DIR}/Resistor_THT.3dshapes/R_Axial_DIN0204_L3.6mm_D1.6mm_P2.54mm_Vertical.wrl"
      (offset (xyz 0 0 0))
      (scale (xyz 1 1 1))
      (rotate (xyz 0 0 0))
    )
  )

  (footprint "Resistor_THT:R_Axial_DIN0204_L3.6mm_D1.6mm_P2.54mm_Vertical" (layer "F.Cu")
    (tedit 5AE5139B) (tstamp 146b3bb0-ba4a-41be-8ce8-73ccb718458f)
    (at 136.59 114.576666)
    (descr "Resistor, Axial_DIN0204 series, Axial, Vertical, pin pitch=2.54mm, 0.167W, length*diameter=3.6*1.6mm^2, http://cdn-reichelt.de/documents/datenblatt/B400/1_4W%23YAG.pdf")
    (tags "Resistor Axial_DIN0204 series Axial Vertical pin pitch 2.54mm 0.167W length 3.6mm diameter 1.6mm")
    (attr through_hole)
    (fp_text reference "REF**" (at 1.27 -1.92) (layer "F.SilkS") hide
      (effects (font (size 1 1) (thickness 0.15)))
      (tstamp 03e0802a-fdfd-4b33-a383-557ca7980546)
    )
    (fp_text value "R_Axial_DIN0204_L3.6mm_D1.6mm_P2.54mm_Vertical" (at 1.27 1.92) (layer "F.Fab")
      (effects (font (size 1 1) (thickness 0.15)))
      (tstamp e7a4e4f3-314d-41f3-8cb3-381fa409c61e)
    )
    (fp_text user "${REFERENCE}" (at 1.27 -1.92) (layer "F.Fab")
      (effects (font (size 1 1) (thickness 0.15)))
      (tstamp b534ee2f-9df3-42ab-a8b4-3066bd41e1c8)
    )
    (fp_line (start 0 0) (end 2.54 0) (layer "F.Fab") (width 0.1) (tstamp 3918f1da-6c70-43de-b15b-b1161c20116f))
    (fp_circle (center 0 0) (end 0.8 0) (layer "F.Fab") (width 0.1) (fill none) (tstamp 5fdd5118-10d1-427f-bdfd-30aa6623214e))
    (pad "1" thru_hole circle (at 0 0) (size 1.4 1.4) (drill 0.7) (layers F&B.Cu *.Mask) (tstamp 0bde5aa8-7f82-45ce-82b1-7c563c479c7c))
    (pad "2" thru_hole oval (at 2.54 0) (size 1.4 1.4) (drill 0.7) (layers F&B.Cu *.Mask) (tstamp f5a7ed5b-7bf4-4d35-8ac5-f34de75cf830))
    (model "${KICAD6_3DMODEL_DIR}/Resistor_THT.3dshapes/R_Axial_DIN0204_L3.6mm_D1.6mm_P2.54mm_Vertical.wrl"
      (offset (xyz 0 0 0))
      (scale (xyz 1 1 1))
      (rotate (xyz 0 0 0))
    )
  )

  (footprint "Resistor_SMD:R_1206_3216Metric" (layer "F.Cu")
    (tedit 5F68FEEE) (tstamp a4b4c47d-e918-4825-a33d-58ee0a099f43)
    (at 137.81 113.326666)
    (descr "Resistor SMD 1206 (3216 Metric), square (rectangular) end terminal, IPC_7351 nominal, (Body size source: IPC-SM-782 page 72, https://www.pcb-3d.com/wordpress/wp-content/uploads/ipc-sm-782a_amendment_1_and_2.pdf), generated with kicad-footprint-generator")
    (tags "resistor")
    (property "Sheetfile" "CosmosBuffer-Resistors.kicad_sch")
    (property "Sheetname" "")
    (path "/6ed18df6-f1e9-42f5-88a7-b4dbdfcc9830")
    (attr smd)
    (fp_text reference "R2" (at 0 -1.82) (layer "F.SilkS") hide
      (effects (font (size 1 1) (thickness 0.15)))
      (tstamp d5651c7d-f811-4b2e-b959-b2a8d863cbc3)
    )
    (fp_text value "R" (at 0 1.82) (layer "F.Fab")
      (effects (font (size 1 1) (thickness 0.15)))
      (tstamp 23a5d115-a7cd-46ed-9c81-b2444edbb4f4)
    )
    (fp_text user "${REFERENCE}" (at 0 0) (layer "F.Fab")
      (effects (font (size 0.8 0.8) (thickness 0.12)))
      (tstamp f1a35000-e882-4c90-a243-ea13eed8fe2c)
    )
    (fp_line (start -2.28 1.12) (end -2.28 -1.12) (layer "F.CrtYd") (width 0.05) (tstamp 218e9112-8fb4-4e3c-8952-3ed8e42b3c73))
    (fp_line (start 2.28 -1.12) (end 2.28 1.12) (layer "F.CrtYd") (width 0.05) (tstamp 82d7d224-3402-4037-b571-0cda0e266c06))
    (fp_line (start 2.28 1.12) (end -2.28 1.12) (layer "F.CrtYd") (width 0.05) (tstamp cfa625f8-48ac-4487-ab67-3e63e74d6218))
    (fp_line (start -2.28 -1.12) (end 2.28 -1.12) (layer "F.CrtYd") (width 0.05) (tstamp e12d53a6-ef87-4cfc-a245-1f44e583cd31))
    (fp_line (start -1.6 0.8) (end -1.6 -0.8) (layer "F.Fab") (width 0.1) (tstamp 3e18e8c1-e842-49ee-a208-47f75c1c708e))
    (fp_line (start 1.6 -0.8) (end 1.6 0.8) (layer "F.Fab") (width 0.1) (tstamp 9fe6359b-5420-4a48-823a-7393cf1d23d8))
    (fp_line (start -1.6 -0.8) (end 1.6 -0.8) (layer "F.Fab") (width 0.1) (tstamp bd4628fc-7b0d-4c6e-8f4a-17b102e12dea))
    (fp_line (start 1.6 0.8) (end -1.6 0.8) (layer "F.Fab") (width 0.1) (tstamp ebf401d5-b406-4959-9ea8-6ea9bac2fed3))
    (pad "1" smd roundrect (at -1.4625 0) (size 1.125 1.75) (layers "F.Cu" "F.Paste" "F.Mask") (roundrect_rratio 0.2222222222)
      (net 2 "Net-(R2-Pad1)") (pintype "passive") (tstamp 0d1a739a-192d-4e8e-af19-baa7f95255f3))
    (pad "2" smd roundrect (at 1.4625 0) (size 1.125 1.75) (layers "F.Cu" "F.Paste" "F.Mask") (roundrect_rratio 0.2222222222)
      (net 15 "Net-(R2-Pad2)") (pintype "passive") (tstamp 524761c0-494c-4034-a7e3-e54c2dc40131))
    (model "${KICAD6_3DMODEL_DIR}/Resistor_SMD.3dshapes/R_1206_3216Metric.wrl"
      (offset (xyz 0 0 0))
      (scale (xyz 1 1 1))
      (rotate (xyz 0 0 0))
    )
  )

  (footprint "Resistor_SMD:R_1206_3216Metric" (layer "F.Cu")
    (tedit 5F68FEEE) (tstamp da0f3213-3cde-4500-91be-927765c94248)
    (at 137.87 125.353332)
    (descr "Resistor SMD 1206 (3216 Metric), square (rectangular) end terminal, IPC_7351 nominal, (Body size source: IPC-SM-782 page 72, https://www.pcb-3d.com/wordpress/wp-content/uploads/ipc-sm-782a_amendment_1_and_2.pdf), generated with kicad-footprint-generator")
    (tags "resistor")
    (property "Sheetfile" "CosmosBuffer-Resistors.kicad_sch")
    (property "Sheetname" "")
    (path "/581fc69d-44f1-47e4-a60c-f8d6a678e076")
    (attr smd)
    (fp_text reference "R3" (at 0 -1.82) (layer "F.SilkS") hide
      (effects (font (size 1 1) (thickness 0.15)))
      (tstamp 80bc6a79-bff2-4237-9f79-9ec7a0e9e3cc)
    )
    (fp_text value "R" (at 0 1.82) (layer "F.Fab")
      (effects (font (size 1 1) (thickness 0.15)))
      (tstamp c27d6b73-b814-425c-9521-d5620a596be0)
    )
    (fp_text user "${REFERENCE}" (at 0 0) (layer "F.Fab")
      (effects (font (size 0.8 0.8) (thickness 0.12)))
      (tstamp cefe0ea3-b469-4b6d-bf11-db0a788f1de7)
    )
    (fp_line (start 2.28 1.12) (end -2.28 1.12) (layer "F.CrtYd") (width 0.05) (tstamp 8170d159-f8c0-4b45-adc6-f9cdf3f86fcd))
    (fp_line (start -2.28 1.12) (end -2.28 -1.12) (layer "F.CrtYd") (width 0.05) (tstamp 9ce1a7a7-5713-4554-bfaa-a481d9144d6e))
    (fp_line (start 2.28 -1.12) (end 2.28 1.12) (layer "F.CrtYd") (width 0.05) (tstamp cfe6f30a-7a09-4e2d-9ead-31b6724efa9b))
    (fp_line (start -2.28 -1.12) (end 2.28 -1.12) (layer "F.CrtYd") (width 0.05) (tstamp e3c60ff7-ae4d-4a0d-a6bf-fc3c31269237))
    (fp_line (start -1.6 -0.8) (end 1.6 -0.8) (layer "F.Fab") (width 0.1) (tstamp 17d136db-a9b7-49f8-a38d-d44be01c4b4f))
    (fp_line (start 1.6 -0.8) (end 1.6 0.8) (layer "F.Fab") (width 0.1) (tstamp 29417235-796f-463a-8f87-e6a163065b48))
    (fp_line (start 1.6 0.8) (end -1.6 0.8) (layer "F.Fab") (width 0.1) (tstamp aa0c266d-59f7-4be6-8521-93115226a6c4))
    (fp_line (start -1.6 0.8) (end -1.6 -0.8) (layer "F.Fab") (width 0.1) (tstamp cee17c2b-ff7d-44c6-9bf5-920bb0917ec6))
    (pad "1" smd roundrect (at -1.4625 0) (size 1.125 1.75) (layers "F.Cu" "F.Paste" "F.Mask") (roundrect_rratio 0.2222222222)
      (net 7 "Net-(R3-Pad1)") (pintype "passive") (tstamp 168cb621-8afa-47d8-9565-ed091138e80a))
    (pad "2" smd roundrect (at 1.4625 0) (size 1.125 1.75) (layers "F.Cu" "F.Paste" "F.Mask") (roundrect_rratio 0.2222222222)
      (net 10 "Net-(R3-Pad2)") (pintype "passive") (tstamp 0b98552f-f82d-4306-a50e-077018330908))
    (model "${KICAD6_3DMODEL_DIR}/Resistor_SMD.3dshapes/R_1206_3216Metric.wrl"
      (offset (xyz 0 0 0))
      (scale (xyz 1 1 1))
      (rotate (xyz 0 0 0))
    )
  )

  (footprint "Resistor_SMD:R_1206_3216Metric" (layer "F.Cu")
    (tedit 5F68FEEE) (tstamp f451ebf8-838b-485a-833d-0d6fe64189ce)
    (at 137.81 128.53)
    (descr "Resistor SMD 1206 (3216 Metric), square (rectangular) end terminal, IPC_7351 nominal, (Body size source: IPC-SM-782 page 72, https://www.pcb-3d.com/wordpress/wp-content/uploads/ipc-sm-782a_amendment_1_and_2.pdf), generated with kicad-footprint-generator")
    (tags "resistor")
    (property "Sheetfile" "CosmosBuffer-Resistors.kicad_sch")
    (property "Sheetname" "")
    (path "/d8ed1b13-b3dd-4793-811b-9c576e98748f")
    (attr smd)
    (fp_text reference "R4" (at 0 -1.82) (layer "F.SilkS") hide
      (effects (font (size 1 1) (thickness 0.15)))
      (tstamp 74a93821-39c9-453e-9061-031924b619cc)
    )
    (fp_text value "R" (at 0 1.82) (layer "F.Fab")
      (effects (font (size 1 1) (thickness 0.15)))
      (tstamp 6f799e4a-2d27-40ac-9fa3-680ec514d91a)
    )
    (fp_text user "${REFERENCE}" (at 0 0) (layer "F.Fab")
      (effects (font (size 0.8 0.8) (thickness 0.12)))
      (tstamp 3098314d-a38c-4896-8ac3-caffbb50566e)
    )
    (fp_line (start 2.28 1.12) (end -2.28 1.12) (layer "F.CrtYd") (width 0.05) (tstamp 394f894c-027d-43bc-a34b-c4b0fcf6ecce))
    (fp_line (start -2.28 -1.12) (end 2.28 -1.12) (layer "F.CrtYd") (width 0.05) (tstamp d0e5caca-2581-4ac3-a87c-378538722634))
    (fp_line (start -2.28 1.12) (end -2.28 -1.12) (layer "F.CrtYd") (width 0.05) (tstamp e424c234-16da-46cd-96c2-e7a9c1e27097))
    (fp_line (start 2.28 -1.12) (end 2.28 1.12) (layer "F.CrtYd") (width 0.05) (tstamp f0ed7836-7e57-4b28-a3eb-1192faaf20b9))
    (fp_line (start -1.6 0.8) (end -1.6 -0.8) (layer "F.Fab") (width 0.1) (tstamp 47b97541-f4ab-4fef-83eb-0bafe78416ce))
    (fp_line (start 1.6 -0.8) (end 1.6 0.8) (layer "F.Fab") (width 0.1) (tstamp 665ff9af-68a7-4df6-9f8b-bb6a72979b4d))
    (fp_line (start -1.6 -0.8) (end 1.6 -0.8) (layer "F.Fab") (width 0.1) (tstamp 87a6782e-bc8e-4ed9-8fd3-7de70b058e10))
    (fp_line (start 1.6 0.8) (end -1.6 0.8) (layer "F.Fab") (width 0.1) (tstamp c7c6ed76-b8b3-47a0-b23f-003c32745c6f))
    (pad "1" smd roundrect (at -1.4625 0) (size 1.125 1.75) (layers "F.Cu" "F.Paste" "F.Mask") (roundrect_rratio 0.2222222222)
      (net 8 "Net-(R4-Pad1)") (pintype "passive") (tstamp ddc2ea5b-8e24-4cc0-b66f-63df1659a48e))
    (pad "2" smd roundrect (at 1.4625 0) (size 1.125 1.75) (layers "F.Cu" "F.Paste" "F.Mask") (roundrect_rratio 0.2222222222)
      (net 9 "Net-(R4-Pad2)") (pintype "passive") (tstamp ec628a22-76c7-4aa7-8d75-9f918386f9d9))
    (model "${KICAD6_3DMODEL_DIR}/Resistor_SMD.3dshapes/R_1206_3216Metric.wrl"
      (offset (xyz 0 0 0))
      (scale (xyz 1 1 1))
      (rotate (xyz 0 0 0))
    )
  )

  (footprint "Resistor_THT:R_Axial_DIN0204_L3.6mm_D1.6mm_P2.54mm_Vertical" (layer "F.Cu")
    (tedit 5AE5139B) (tstamp fc96ed55-0f9f-43c2-801a-bedc7c42e364)
    (at 136.605 124.103332)
    (descr "Resistor, Axial_DIN0204 series, Axial, Vertical, pin pitch=2.54mm, 0.167W, length*diameter=3.6*1.6mm^2, http://cdn-reichelt.de/documents/datenblatt/B400/1_4W%23YAG.pdf")
    (tags "Resistor Axial_DIN0204 series Axial Vertical pin pitch 2.54mm 0.167W length 3.6mm diameter 1.6mm")
    (attr through_hole)
    (fp_text reference "REF**" (at 1.27 -1.92) (layer "F.SilkS") hide
      (effects (font (size 1 1) (thickness 0.15)))
      (tstamp cb2baf89-a87e-4ae1-ad80-6fb0ad3f3ea0)
    )
    (fp_text value "R_Axial_DIN0204_L3.6mm_D1.6mm_P2.54mm_Vertical" (at 1.27 1.92) (layer "F.Fab")
      (effects (font (size 1 1) (thickness 0.15)))
      (tstamp ac120527-2efb-4808-a801-1423e0543865)
    )
    (fp_text user "${REFERENCE}" (at 1.27 -1.92) (layer "F.Fab")
      (effects (font (size 1 1) (thickness 0.15)))
      (tstamp 56c56da7-e1a3-42bb-82fa-b1c1430ba33c)
    )
    (fp_line (start 0 0) (end 2.54 0) (layer "F.Fab") (width 0.1) (tstamp 38456335-91e2-4bac-a827-ded6ac1afda1))
    (fp_circle (center 0 0) (end 0.8 0) (layer "F.Fab") (width 0.1) (fill none) (tstamp 8f732804-c76b-43be-95a2-1327c9752b7c))
    (pad "1" thru_hole circle (at 0 0) (size 1.4 1.4) (drill 0.7) (layers F&B.Cu *.Mask) (tstamp 47fa7910-b85a-4cef-9896-850945f89e74))
    (pad "2" thru_hole oval (at 2.54 0) (size 1.4 1.4) (drill 0.7) (layers F&B.Cu *.Mask) (tstamp b3d83458-945e-4606-b59c-a8e07ee54913))
    (model "${KICAD6_3DMODEL_DIR}/Resistor_THT.3dshapes/R_Axial_DIN0204_L3.6mm_D1.6mm_P2.54mm_Vertical.wrl"
      (offset (xyz 0 0 0))
      (scale (xyz 1 1 1))
      (rotate (xyz 0 0 0))
    )
  )

  (footprint "Connector_PinHeader_2.54mm:PinHeader_1x08_P2.54mm_Vertical" (layer "B.Cu")
    (tedit 59FED5CC) (tstamp 7e31c828-c732-4121-b553-0a32a9760fcb)
    (at 134 110.45 180)
    (descr "Through hole straight pin header, 1x08, 2.54mm pitch, single row")
    (tags "Through hole pin header THT 1x08 2.54mm single row")
    (property "Sheetfile" "CosmosBuffer-Resistors.kicad_sch")
    (property "Sheetname" "")
    (path "/31027cb4-3652-4247-b613-609f35c55614")
    (attr through_hole)
    (fp_text reference "J1" (at 0 2.33) (layer "B.SilkS") hide
      (effects (font (size 1 1) (thickness 0.15)) (justify mirror))
      (tstamp 72bf1efe-3496-4c9b-83f5-8e4144f9eebc)
    )
    (fp_text value " " (at 0 -20.11) (layer "B.Fab")
      (effects (font (size 1 1) (thickness 0.15)) (justify mirror))
      (tstamp 63c3c51a-93d8-4917-bbb7-ac995e98d4c3)
    )
    (fp_text user "${REFERENCE}" (at 0 -8.89 90) (layer "B.Fab")
      (effects (font (size 1 1) (thickness 0.15)) (justify mirror))
      (tstamp 16881b2d-212a-4af4-9aec-1aee48b36912)
    )
    (fp_line (start -1.33 -1.27) (end -1.33 -19.11) (layer "B.SilkS") (width 0.12) (tstamp 24654000-28f4-4791-965a-cee67b7bff97))
    (fp_line (start -1.33 -1.27) (end 1.33 -1.27) (layer "B.SilkS") (width 0.12) (tstamp 4e459c55-a22a-4617-bc33-9ea983dc81db))
    (fp_line (start 1.33 -1.27) (end 1.33 -19.11) (layer "B.SilkS") (width 0.12) (tstamp 54360bf3-40a6-422b-8b95-bc042a6d13f7))
    (fp_line (start -1.33 -19.11) (end 1.33 -19.11) (layer "B.SilkS") (width 0.12) (tstamp 7585d2e4-1d95-4095-8e71-26497d5fec53))
    (fp_line (start -1.33 0) (end -1.33 1.33) (layer "B.SilkS") (width 0.12) (tstamp e55ed493-2099-46df-9637-97533196fe05))
    (fp_line (start -1.33 1.33) (end 0 1.33) (layer "B.SilkS") (width 0.12) (tstamp f6994c80-6b9b-4c56-aeb5-610a7a921ca0))
    (fp_line (start -1.8 -19.55) (end 1.8 -19.55) (layer "B.CrtYd") (width 0.05) (tstamp 95fcfaaa-ca17-4580-9b31-8712cafdd1df))
    (fp_line (start -1.8 1.8) (end -1.8 -19.55) (layer "B.CrtYd") (width 0.05) (tstamp bdd8ffc4-1e41-4016-bbef-876d58dd15dc))
    (fp_line (start 1.8 1.8) (end -1.8 1.8) (layer "B.CrtYd") (width 0.05) (tstamp bebd993d-eb09-46f1-81c9-8715a3fc925e))
    (fp_line (start 1.8 -19.55) (end 1.8 1.8) (layer "B.CrtYd") (width 0.05) (tstamp e5c2d897-9e65-4309-8553-d4a5e8b1090d))
    (fp_line (start 1.27 1.27) (end 1.27 -19.05) (layer "B.Fab") (width 0.1) (tstamp 0d897c47-a40e-40b2-b729-06fd0a29b282))
    (fp_line (start 1.27 -19.05) (end -1.27 -19.05) (layer "B.Fab") (width 0.1) (tstamp 513df05c-21b4-42f7-93ea-e40b900dbb3d))
    (fp_line (start -1.27 -19.05) (end -1.27 0.635) (layer "B.Fab") (width 0.1) (tstamp 94ee553d-8854-4d01-ab4b-255df6f14030))
    (fp_line (start -0.635 1.27) (end 1.27 1.27) (layer "B.Fab") (width 0.1) (tstamp d676e075-dabb-41ef-bc76-322284a205a3))
    (fp_line (start -1.27 0.635) (end -0.635 1.27) (layer "B.Fab") (width 0.1) (tstamp f2234904-5c94-404d-a431-8d34b7f8562f))
    (pad "1" thru_hole rect (at 0 0 180) (size 1.5 1.5) (drill 0.8) (layers *.Cu *.Mask)
      (net 1 "Net-(R1-Pad1)") (pinfunction "Pin_1") (pintype "passive") (tstamp 5dd1fc71-0932-4bf5-91fc-f3ce1bb6e213))
    (pad "2" thru_hole oval (at 0 -2.54 180) (size 1.5 1.5) (drill 0.8) (layers *.Cu *.Mask)
      (net 2 "Net-(R2-Pad1)") (pinfunction "Pin_2") (pintype "passive") (tstamp f8b9b9e0-f32b-48b6-b21a-ee16570e2b6b))
    (pad "3" thru_hole oval (at 0 -5.08 180) (size 1.5 1.5) (drill 0.8) (layers *.Cu *.Mask)
      (net 3 "unconnected-(J1-Pad3)") (pinfunction "Pin_3") (pintype "passive+no_connect") (tstamp bf65a4e0-91fe-4695-b08a-6c922bb22d40))
    (pad "4" thru_hole oval (at 0 -7.62 180) (size 1.5 1.5) (drill 0.8) (layers *.Cu *.Mask)
      (net 4 "unconnected-(J1-Pad4)") (pinfunction "Pin_4") (pintype "passive+no_connect") (tstamp 900d489c-8760-4fd7-b2cb-b051b8cdf31a))
    (pad "5" thru_hole oval (at 0 -10.16 180) (size 1.5 1.5) (drill 0.8) (layers *.Cu *.Mask)
      (net 5 "unconnected-(J1-Pad5)") (pinfunction "Pin_5") (pintype "passive+no_connect") (tstamp 1f446aba-1df2-44a8-beff-1c4153a8791d))
    (pad "6" thru_hole oval (at 0 -12.7 180) (size 1.5 1.5) (drill 0.8) (layers *.Cu *.Mask)
      (net 6 "unconnected-(J1-Pad6)") (pinfunction "Pin_6") (pintype "passive+no_connect") (tstamp 8b9c4ef9-3cd9-4c46-a1c8-6c4b24327d39))
    (pad "7" thru_hole oval (at 0 -15.24 180) (size 1.5 1.5) (drill 0.8) (layers *.Cu *.Mask)
      (net 7 "Net-(R3-Pad1)") (pinfunction "Pin_7") (pintype "passive") (tstamp d6e52e75-5a51-4cf1-b84f-0a11ea8829de))
    (pad "8" thru_hole oval (at 0 -17.78 180) (size 1.5 1.5) (drill 0.8) (layers *.Cu *.Mask)
      (net 8 "Net-(R4-Pad1)") (pinfunction "Pin_8") (pintype "passive") (tstamp 7b6e0aaa-94d7-4e8c-b5ad-dc2087c5b5b7))
    (model "${KICAD6_3DMODEL_DIR}/Connector_PinHeader_2.54mm.3dshapes/PinHeader_1x08_P2.54mm_Vertical.wrl"
      (offset (xyz 0 0 0))
      (scale (xyz 1 1 1))
      (rotate (xyz 0 0 0))
    )
  )

  (footprint "Connector_PinHeader_2.54mm:PinHeader_1x08_P2.54mm_Vertical" (layer "B.Cu")
    (tedit 59FED5CC) (tstamp acc0bdd0-ff86-4a0a-bb38-d4f5fc97bc7c)
    (at 141.62 128.23)
    (descr "Through hole straight pin header, 1x08, 2.54mm pitch, single row")
    (tags "Through hole pin header THT 1x08 2.54mm single row")
    (property "Sheetfile" "CosmosBuffer-Resistors.kicad_sch")
    (property "Sheetname" "")
    (path "/cd9ebecc-2bad-4ca2-9664-2d2d27112f61")
    (attr through_hole)
    (fp_text reference "J2" (at 0 2.33 180) (layer "B.SilkS") hide
      (effects (font (size 1 1) (thickness 0.15)) (justify mirror))
      (tstamp 17dd66ff-6091-407e-a966-0fe1de2d88d6)
    )
    (fp_text value " " (at 0 -20.11 180) (layer "B.Fab")
      (effects (font (size 1 1) (thickness 0.15)) (justify mirror))
      (tstamp 3ed15be1-638a-4428-a43d-2a3b68dbf746)
    )
    (fp_text user "${REFERENCE}" (at 0 -8.89 -90) (layer "B.Fab")
      (effects (font (size 1 1) (thickness 0.15)) (justify mirror))
      (tstamp 1962009f-5999-44d6-8643-6e0539eb1a2d)
    )
    (fp_line (start -1.33 0) (end -1.33 1.33) (layer "B.SilkS") (width 0.12) (tstamp 275e3fdc-2466-45e4-9599-7cc292b09d7d))
    (fp_line (start -1.33 1.33) (end 0 1.33) (layer "B.SilkS") (width 0.12) (tstamp 2d366102-7b91-4e5c-9fd8-94fa273b2d7c))
    (fp_line (start -1.33 -1.27) (end 1.33 -1.27) (layer "B.SilkS") (width 0.12) (tstamp 61c4fb9b-620f-4016-83be-befb0c32362c))
    (fp_line (start 1.33 -1.27) (end 1.33 -19.11) (layer "B.SilkS") (width 0.12) (tstamp 99cf32e3-ed68-4ea6-8522-0e23c53ebab2))
    (fp_line (start -1.33 -1.27) (end -1.33 -19.11) (layer "B.SilkS") (width 0.12) (tstamp d084896e-3aef-4fe4-b6b5-9500252921de))
    (fp_line (start -1.33 -19.11) (end 1.33 -19.11) (layer "B.SilkS") (width 0.12) (tstamp ec9bfe5e-dd2a-4e0f-9f83-1e6519ee1e54))
    (fp_line (start 1.8 1.8) (end -1.8 1.8) (layer "B.CrtYd") (width 0.05) (tstamp 323e54c4-f35a-4a3f-9ca0-a1cbf4e6b059))
    (fp_line (start -1.8 -19.55) (end 1.8 -19.55) (layer "B.CrtYd") (width 0.05) (tstamp 401a96ac-628a-426e-b2ba-57ae6a151781))
    (fp_line (start 1.8 -19.55) (end 1.8 1.8) (layer "B.CrtYd") (width 0.05) (tstamp 9fe24c34-0245-4ef6-b48c-e02a4b3e6c1d))
    (fp_line (start -1.8 1.8) (end -1.8 -19.55) (layer "B.CrtYd") (width 0.05) (tstamp fa00fb7b-db82-45a9-ba81-aeb93348f6ff))
    (fp_line (start -1.27 -19.05) (end -1.27 0.635) (layer "B.Fab") (width 0.1) (tstamp 082e52e8-9041-4e05-9795-5fd5ae478b4c))
    (fp_line (start -1.27 0.635) (end -0.635 1.27) (layer "B.Fab") (width 0.1) (tstamp 9927fbf5-103c-4ede-a8da-050071246d53))
    (fp_line (start 1.27 -19.05) (end -1.27 -19.05) (layer "B.Fab") (width 0.1) (tstamp 9ed52df8-7a84-42d9-a04a-cc8144d6a9f4))
    (fp_line (start -0.635 1.27) (end 1.27 1.27) (layer "B.Fab") (width 0.1) (tstamp a21320f1-1252-4dc9-91a6-0b4686015f12))
    (fp_line (start 1.27 1.27) (end 1.27 -19.05) (layer "B.Fab") (width 0.1) (tstamp b3f51524-7e0f-41c5-afca-d2ecb3be5e61))
    (pad "1" thru_hole rect (at 0 0) (size 1.5 1.5) (drill 0.8) (layers *.Cu *.Mask)
      (net 9 "Net-(R4-Pad2)") (pinfunction "Pin_1") (pintype "passive") (tstamp 55610907-635c-4f8a-8465-ad41f24a5cb8))
    (pad "2" thru_hole oval (at 0 -2.54) (size 1.5 1.5) (drill 0.8) (layers *.Cu *.Mask)
      (net 10 "Net-(R3-Pad2)") (pinfunction "Pin_2") (pintype "passive") (tstamp 26d716af-ed4c-4ad4-90bf-be625c32d1a2))
    (pad "3" thru_hole oval (at 0 -5.08) (size 1.5 1.5) (drill 0.8) (layers *.Cu *.Mask)
      (net 11 "unconnected-(J2-Pad3)") (pinfunction "Pin_3") (pintype "passive+no_connect") (tstamp 82dd9838-e104-4a9f-b3b3-f76df2bc9e7b))
    (pad "4" thru_hole oval (at 0 -7.62) (size 1.5 1.5) (drill 0.8) (layers *.Cu *.Mask)
      (net 12 "unconnected-(J2-Pad4)") (pinfunction "Pin_4") (pintype "passive+no_connect") (tstamp 0f18b512-0b6b-4763-a416-610b39fb7974))
    (pad "5" thru_hole oval (at 0 -10.16) (size 1.5 1.5) (drill 0.8) (layers *.Cu *.Mask)
      (net 13 "unconnected-(J2-Pad5)") (pinfunction "Pin_5") (pintype "passive+no_connect") (tstamp 791781a6-ef28-48bf-b1ad-371662fb7e3e))
    (pad "6" thru_hole oval (at 0 -12.7) (size 1.5 1.5) (drill 0.8) (layers *.Cu *.Mask)
      (net 14 "unconnected-(J2-Pad6)") (pinfunction "Pin_6") (pintype "passive+no_connect") (tstamp ae96ced7-0f7f-4360-8341-73c70a1ec96d))
    (pad "7" thru_hole oval (at 0 -15.24) (size 1.5 1.5) (drill 0.8) (layers *.Cu *.Mask)
      (net 15 "Net-(R2-Pad2)") (pinfunction "Pin_7") (pintype "passive") (tstamp f2332186-88fd-4ec3-9e99-283d32b1198b))
    (pad "8" thru_hole oval (at 0 -17.78) (size 1.5 1.5) (drill 0.8) (layers *.Cu *.Mask)
      (net 16 "Net-(R1-Pad2)") (pinfunction "Pin_8") (pintype "passive") (tstamp 256c4dd6-c6bf-437f-9fac-43ebb8b5347e))
    (model "${KICAD6_3DMODEL_DIR}/Connector_PinHeader_2.54mm.3dshapes/PinHeader_1x08_P2.54mm_Vertical.wrl"
      (offset (xyz 0 0 0))
      (scale (xyz 1 1 1))
      (rotate (xyz 0 0 0))
    )
  )

  (gr_line (start 132.53 129.7) (end 132.53 108.98) (layer "Edge.Cuts") (width 0.1) (tstamp 0dbb3026-4fe5-4769-98f0-427a1e382201))
  (gr_line (start 143.09 108.98) (end 143.09 129.7) (layer "Edge.Cuts") (width 0.1) (tstamp 32380e9b-2a87-4405-8b95-a6cf5ec2b8a4))
  (gr_line (start 143.09 129.7) (end 132.53 129.7) (layer "Edge.Cuts") (width 0.1) (tstamp e9428c0b-a905-4c8a-802e-0f9c498442ca))
  (gr_line (start 143.09 108.98) (end 132.53 108.98) (layer "Edge.Cuts") (width 0.1) (tstamp f577f74a-0b17-41b4-ab27-c55052a63887))

  (segment (start 134 110.45) (end 136.3475 110.45) (width 0.5) (layer "F.Cu") (net 1) (tstamp f9487610-0119-4444-8c1f-15890522603d))
  (segment (start 136.3475 113.03) (end 134.04 113.03) (width 0.5) (layer "F.Cu") (net 2) (tstamp c0ee3730-8ff6-4c2d-ace0-302c85160ccc))
  (segment (start 134.04 113.03) (end 134 112.99) (width 0.5) (layer "F.Cu") (net 2) (tstamp f3d72604-dcbd-41bd-9d39-5a4da07313e8))
  (segment (start 136.2605 125.69) (end 136.3475 125.603) (width 0.5) (layer "F.Cu") (net 7) (tstamp 4e5f37e7-5350-470d-b8c4-ec6fb49fe503))
  (segment (start 134 125.69) (end 136.2605 125.69) (width 0.5) (layer "F.Cu") (net 7) (tstamp 4eae2bc7-474f-454b-a630-c8b1f17b81a7))
  (segment (start 134 128.23) (end 136.3475 128.23) (width 0.5) (layer "F.Cu") (net 8) (tstamp 112d15a7-c4f4-49bb-8350-13e6b4046622))
  (segment (start 139.2725 128.23) (end 141.62 128.23) (width 0.5) (layer "F.Cu") (net 9) (tstamp 72211ea5-c5d6-482d-b473-7321b73124a9))
  (segment (start 141.62 125.69) (end 139.3595 125.69) (width 0.5) (layer "F.Cu") (net 10) (tstamp 34aec225-c80f-4c99-aa9e-267b17e10331))
  (segment (start 139.3595 125.69) (end 139.2725 125.603) (width 0.5) (layer "F.Cu") (net 10) (tstamp 5295a0ce-3854-4efe-9c06-605a6d1a9694))
  (segment (start 139.3125 112.99) (end 139.2725 113.03) (width 0.5) (layer "F.Cu") (net 15) (tstamp 3f338fb3-d41c-4045-8ce5-ef06e4a94e38))
  (segment (start 141.62 112.99) (end 139.3125 112.99) (width 0.5) (layer "F.Cu") (net 15) (tstamp 7de965b4-0ae6-4872-9aa0-4355e18df7a9))
  (segment (start 139.2725 110.45) (end 141.62 110.45) (width 0.5) (layer "F.Cu") (net 16) (tstamp 52f388bd-85b2-4b45-9c46-c96505c2878b))

  (zone (net 0) (net_name "") (layer "F.SilkS") (tstamp c2b8bdc4-ab60-49a2-a279-9e35db93ccb9) (hatch edge 0.508)
    (connect_pads (clearance 0.508))
    (min_thickness 0.254) (filled_areas_thickness no)
    (fill yes (thermal_gap 0.508) (thermal_bridge_width 0.508))
    (polygon
      (pts
        (xy 140.7056 123.367999)
        (xy 134.9144 123.367999)
        (xy 134.9144 115.311999)
        (xy 140.7056 115.311999)
      )
    )
    (filled_polygon
      (layer "F.SilkS")
      (island)
      (pts
        (xy 140.647721 115.332001)
        (xy 140.694214 115.385657)
        (xy 140.7056 115.437999)
        (xy 140.7056 123.241999)
        (xy 140.685598 123.31012)
        (xy 140.631942 123.356613)
        (xy 140.5796 123.367999)
        (xy 135.0404 123.367999)
        (xy 134.972279 123.347997)
        (xy 134.925786 123.294341)
        (xy 134.9144 123.241999)
        (xy 134.9144 115.437999)
        (xy 134.934402 115.369878)
        (xy 134.988058 115.323385)
        (xy 135.0404 115.311999)
        (xy 140.5796 115.311999)
      )
    )
  )
)
